Tidymodeling Titanic Tragedy
…
---

# How bad?

```r
predictions <- tibble(
  actual    = factor(train_tbl$survived, labels = c("no", "yes")),
  predicted = predict_class(rf, train_tbl)
)

predictions
```

```
## # A tibble: 891 x 2
##    actual predicted
##    <fct>  <fct>    
##  1 no     no       
##  2 yes    yes      
##  3 yes    no       
##  4 yes    yes      
##  5 no     no       
##  6 no     no       
##  7 no     no       
##  8 no     no       
##  9 yes    yes      
## 10 yes    no       
## # ... with 881 more rows
```
…
---

# Let's bake a 🍰

```r
rec %>%
  prep() %>%
  bake(train_tbl)
```

```
## # A tibble: 891 x 4
##    survived n_siblings_spouses n_parents_children  fare
##    <fct>                 <int>              <int> <dbl>
##  1 no                        1                  0  7.25
##  2 yes                       1                  0 71.3 
##  3 yes                       0                  0  7.92
##  4 yes                       1                  0 53.1 
##  5 no                        0                  0  8.05
##  6 no                        0                  0  8.46
##  7 no                        0                  0 51.9 
##  8 no                        3                  1 21.1 
##  9 yes                       0                  2 11.1 
## 10 yes                       1                  0 30.1 
## # ... with 881 more rows
```
…
---

# Have you ever juiced a 🍰?

```r
rec %>%
  prep(train_tbl, retain = TRUE) %>%  # estimate from training data
  juice()
```

```
## # A tibble: 891 x 6
##    survived sex      age n_siblings_spouses n_parents_children  fare
##    <fct>    <fct>  <dbl>              <int>              <int> <dbl>
##  1 no       male    22                    1                  0  7.25
##  2 yes      female  38                    1                  0 71.3 
##  3 yes      female  26                    0                  0  7.92
##  4 yes      female  35                    1                  0 53.1 
##  5 no       male    35                    0                  0  8.05
##  6 no       male    29.7                  0                  0  8.46
##  7 no       male    54                    0                  0 51.9 
##  8 no       male     2                    3                  1 21.1 
##  9 yes      female  27                    0                  2 11.1 
## 10 yes      female  14                    1                  0 30.1 
## # ... with 881 more rows
```
…
```r
rset$splits[[1]]
```

```
## <801/90/891>
```

```r
analysis(rset$splits[[1]]) # training
```

```
## # A tibble: 801 x 12
##    passenger_id survived ticket_class name    sex     age n_siblings_spou…
##           <int>    <int>        <int> <chr>   <chr> <dbl>            <int>
##  1            1        0            3 Braund… male     22                1
##  2            2        1            1 Cuming… fema…    38                1
##  3            3        1            3 Heikki… fema…    26                0
##  4            4        1            1 Futrel… fema…    35                1
##  5            5        0            3 Allen,… male     35                0
##  6            6        0            3 Moran,… male     NA                0
##  7            7        0            1 McCart… male     54                0
##  8            8        0            3 Palsso… male      2                3
##  9            9        1            3 Johnso… fema…    27                0
## 10           10        1            2 Nasser… fema…    14                1
## # ... with 791 more rows, and 5 more variables: n_parents_children <int>,
## #   ticket_id <chr>, fare <dbl>, cabin <chr>, embarked_id <chr>
```

---

# Anatomy of a split

```r
assessment(rset$splits[[1]])  # test
```

```
## # A tibble: 90 x 12
##    passenger_id survived ticket_class name    sex     age n_siblings_spou…
##           <int>    <int>        <int> <chr>   <chr> <dbl>            <int>
##  1           30        0            3 Todoro… male   NA                  0
##  2           49        0            3 Samaan… male   NA                  2
##  3           54        1            2 Faunth… fema…  29                  1
##  4           58        0            3 Novel,… male   28.5                0
##  5           63        0            1 Harris… male   45                  1
##  6           74        0            3 Chrono… male   26                  1
##  7           82        1            3 Sheerl… male   29                  0
##  8           87        0            3 Ford, … male   16                  1
##  9           96        0            3 Shorne… male   NA                  0
## 10          105        0            3 Gustaf… male   37                  2
## # ... with 80 more rows, and 5 more variables: n_parents_children <int>,
## #   ticket_id <chr>, fare <dbl>, cabin <chr>, embarked_id <chr>
```
…
